donatur,kegiatan,tanggal,nominal
bedony@posterous.com,1010045,12/17/2005,16781
lconey5g@si.edu,1010312,6/28/2005,65652
nkempshall2n@google.com.hk,1010473,4/7/2005,68348
plurnerl@google.pl,1010328,2/26/2005,38683
mfinding53@google.cn,1010776,2/2/2005,58425
kfishpoole2u@chron.com,1010523,8/20/2004,53198
wbenedetti3j@hubpages.com,1010025,7/14/2005,52562
ssmales1@yahoo.com,1010045,2/11/2006,22805
eaprahamian3k@ustream.tv,1010900,11/17/2005,12930
fvon0@baidu.com,1010472,2/7/2005,36724
mlawther1j@nasa.gov,1010616,7/23/2004,67649
cbromilow4k@deliciousdays.com,1010563,4/9/2006,23625
ctavner1x@salon.com,1010530,11/17/2004,35469
fcapelle25@cafepress.com,1010240,11/13/2004,69053
lsloane39@live.com,1010356,6/11/2004,33521
vlomax11@1688.com,1010009,9/27/2005,18290
rmarlen5@ucoz.ru,1010365,10/8/2004,48523
bjoynerw@godaddy.com,1010667,3/12/2006,58731
gferreras3e@irs.gov,1010417,9/1/2004,52911
pcambling24@nsw.gov.au,1010540,4/30/2005,52106
lmccrystal5c@guardian.co.uk,1010289,9/1/2004,11529
wduham2f@home.pl,1010605,10/8/2005,41866
scrayker40@hatena.ne.jp,1010726,5/31/2005,18644
pchippindall41@earthlink.net,1010600,9/16/2004,21867
ovinson2p@ft.com,1010040,5/1/2005,16342
