kode_kegiatan,kode_kategori
1010122,75
1010846,57
1010998,35
1010844,48
1011111,68
1010234,97
1010051,77
1010217,58
1010810,65
1010273,60
1010040,82
1010849,6
1010881,74
1010563,60
1010235,51
1010909,67
1010615,4
1010248,2
1010988,44
1010182,19
1010931,74
1010988,36
1010235,20
1010496,59
1010289,79
