email,keahlian,,
hwinsborrow4@hostgator.com,Dubbing,,"('hwinsborrow4@hostgator.com','Dubbing'),"
cohogertie4e@washingtonpost.com,Construction Drawings,,"('cohogertie4e@washingtonpost.com','Construction Drawings'),"
bdandy3s@arstechnica.com,Animal Saver,,"('bdandy3s@arstechnica.com','Animal Saver'),"
cgladding29@hubpages.com,Cell Biology,,"('cgladding29@hubpages.com','Cell Biology'),"
vshefton4n@pagesperso-orange.fr,Urban Regeneration,,"('vshefton4n@pagesperso-orange.fr','Urban Regeneration'),"
tlomis7@a8.net,GWAPT,,"('tlomis7@a8.net','GWAPT'),"
cohogertie4e@washingtonpost.com,Plant Identification,,"('cohogertie4e@washingtonpost.com','Plant Identification'),"
skohrsen34@topsy.com,Dogs,,"('skohrsen34@topsy.com','Dogs'),"
bdandy3s@arstechnica.com,Whole Life,,"('bdandy3s@arstechnica.com','Whole Life'),"
cvail3x@psu.edu,Lytec,,"('cvail3x@psu.edu','Lytec'),"
ddozdill9@deviantart.com,Data Management,,"('ddozdill9@deviantart.com','Data Management'),"
jriddingb@hp.com,High Yield Bonds,,"('jriddingb@hp.com','High Yield Bonds'),"
tjarayj@yahoo.com,Childcare,,"('tjarayj@yahoo.com','Childcare'),"
hwellbank2r@dion.ne.jp,Media TV,,"('hwellbank2r@dion.ne.jp','Media TV'),"
awhitcher1z@geocities.jp,Yearbook,,"('awhitcher1z@geocities.jp','Yearbook'),"
galdren45@gravatar.com,Sea Kayaking,,"('galdren45@gravatar.com','Sea Kayaking'),"
cwildes33@printfriendly.com,NBAP,,"('cwildes33@printfriendly.com','NBAP'),"
dcoulter2k@illinois.edu,DFA,,"('dcoulter2k@illinois.edu','DFA'),"
fvon0@baidu.com,Upholstery,,"('fvon0@baidu.com','Upholstery'),"
lsloane39@live.com,CPP,,"('lsloane39@live.com','CPP'),"
nghelardoni55@sfgate.com,Soft Skills,,"('nghelardoni55@sfgate.com','Soft Skills'),"
gbrokenbrow2o@t-online.de,HR Metrics,,"('gbrokenbrow2o@t-online.de','HR Metrics'),"
jparr3l@typepad.com,IGMP,,"('jparr3l@typepad.com','IGMP'),"
tjarayj@yahoo.com,FX Hedging,,"('tjarayj@yahoo.com','FX Hedging'),"
aphilott4v@imageshack.us,Brand Management,,"('aphilott4v@imageshack.us','Brand Management'),"
vshefton4n@pagesperso-orange.fr,MKS Integrity,,"('vshefton4n@pagesperso-orange.fr','MKS Integrity'),"
cgladding29@hubpages.com,NCS,,"('cgladding29@hubpages.com','NCS'),"
kbartoliniz@domainmarket.com,XBR,,"('kbartoliniz@domainmarket.com','XBR'),"
bbehling3n@youtu.be,Warehouse Management,,"('bbehling3n@youtu.be','Warehouse Management'),"
hwellbank2r@dion.ne.jp,Veterinary Medicine,,"('hwellbank2r@dion.ne.jp','Veterinary Medicine'),"
hwinsborrow4@hostgator.com,BJT,,"('hwinsborrow4@hostgator.com','BJT'),"
wpurkess58@marketwatch.com,Agribusiness,,"('wpurkess58@marketwatch.com','Agribusiness'),"
cnys3z@reference.com,JPEG,,"('cnys3z@reference.com','JPEG'),"
bdandy3s@arstechnica.com,WMS Implementations,,"('bdandy3s@arstechnica.com','WMS Implementations'),"
jriddingb@hp.com,PVC,,"('jriddingb@hp.com','PVC'),"
fvon0@baidu.com,Valuation,,"('fvon0@baidu.com','Valuation'),"
emoyer1t@latimes.com,UIX,,"('emoyer1t@latimes.com','UIX'),"
apicardo2@arstechnica.com,GPS Tracking,,"('apicardo2@arstechnica.com','GPS Tracking'),"
jlonding4c@china.com.cn,JNCIP,,"('jlonding4c@china.com.cn','JNCIP'),"
mivanuschka49@epa.gov,CME,,"('mivanuschka49@epa.gov','CME'),"
ovinson2p@ft.com,Fitness,,"('ovinson2p@ft.com','Fitness'),"
ovinson2p@ft.com,RTO,,"('ovinson2p@ft.com','RTO'),"
tlomis7@a8.net,Xeriscaping,,"('tlomis7@a8.net','Xeriscaping'),"
rlantaph1g@booking.com,Political Economy,,"('rlantaph1g@booking.com','Political Economy'),"
mmayhead5j@networkadvertising.org,EIGRP,,"('mmayhead5j@networkadvertising.org','EIGRP'),"
tlomis7@a8.net,GTP,,"('tlomis7@a8.net','GTP'),"
tlomis7@a8.net,CTMS,,"('tlomis7@a8.net','CTMS'),"
gbrokenbrow2o@t-online.de,JDK,,"('gbrokenbrow2o@t-online.de','JDK'),"
galdren45@gravatar.com,NDC,,"('galdren45@gravatar.com','NDC'),"
nghelardoni55@sfgate.com,JMX,,"('nghelardoni55@sfgate.com','JMX'),"
ovinson2p@ft.com,Icon Design,,"('ovinson2p@ft.com','Icon Design'),"
emoyer1t@latimes.com,Store Management,,"('emoyer1t@latimes.com','Store Management'),"
nghelardoni55@sfgate.com,Juvenile Law,,"('nghelardoni55@sfgate.com','Juvenile Law'),"
mmayhead5j@networkadvertising.org,FSMS,,"('mmayhead5j@networkadvertising.org','FSMS'),"
rlantaph1g@booking.com,SRDF,,"('rlantaph1g@booking.com','SRDF'),"
iweathersm@about.me,Corporate Branding,,"('iweathersm@about.me','Corporate Branding'),"
lsloane39@live.com,Military Training,,"('lsloane39@live.com','Military Training'),"
kreeveleyq@thetimes.co.uk,Izotope RX,,"('kreeveleyq@thetimes.co.uk','Izotope RX'),"
kreeveleyq@thetimes.co.uk,Dual Diagnosis,,"('kreeveleyq@thetimes.co.uk','Dual Diagnosis'),"
hwinsborrow4@hostgator.com,DNS Administration,,"('hwinsborrow4@hostgator.com','DNS Administration'),"
cboards4s@sourceforge.net,iPhone,,"('cboards4s@sourceforge.net','iPhone'),"
cnys3z@reference.com,Financial Audits,,"('cnys3z@reference.com','Financial Audits'),"
cvail3x@psu.edu,Knowledge Representation,,"('cvail3x@psu.edu','Knowledge Representation'),"
jparr3l@typepad.com,Legal Issues,,"('jparr3l@typepad.com','Legal Issues'),"
galdren45@gravatar.com,Hypnosis,,"('galdren45@gravatar.com','Hypnosis'),"
cnys3z@reference.com,LCD Projectors,,"('cnys3z@reference.com','LCD Projectors'),"
skohrsen34@topsy.com,NG-SDH,,"('skohrsen34@topsy.com','NG-SDH'),"
bverlander3d@delicious.com,SG&amp;A,,"('bverlander3d@delicious.com','SG&amp;A'),"
ssivill1f@eventbrite.com,Simple IRA,,"('ssivill1f@eventbrite.com','Simple IRA'),"
ovinson2p@ft.com,Economic Policy,,"('ovinson2p@ft.com','Economic Policy'),"
fvon0@baidu.com,Wound Care,,"('fvon0@baidu.com','Wound Care'),"
aertel2t@mozilla.org,Healthcare Management,,"('aertel2t@mozilla.org','Healthcare Management'),"
bkayes4l@zimbio.com,CBORD,,"('bkayes4l@zimbio.com','CBORD'),"
bdandy3s@arstechnica.com,Keyword Research,,"('bdandy3s@arstechnica.com','Keyword Research'),"
rbasshamc@wufoo.com,UK Law,,"('rbasshamc@wufoo.com','UK Law'),"
wpurkess58@marketwatch.com,VLDB,,"('wpurkess58@marketwatch.com','VLDB'),"
fvon0@baidu.com,Biotechnology,,"('fvon0@baidu.com','Biotechnology'),"
aphilott4v@imageshack.us,TKI,,"('aphilott4v@imageshack.us','TKI'),"
kreeveleyq@thetimes.co.uk,Rubber,,"('kreeveleyq@thetimes.co.uk','Rubber'),"
bverlander3d@delicious.com,E-zines,,"('bverlander3d@delicious.com','E-zines'),"
aertel2t@mozilla.org,Powder X-ray Diffraction,,"('aertel2t@mozilla.org','Powder X-ray Diffraction'),"
jlonding4c@china.com.cn,Photoshop,,"('jlonding4c@china.com.cn','Photoshop'),"
ovinson2p@ft.com,ePub,,"('ovinson2p@ft.com','ePub'),"
jriddingb@hp.com,EHS,,"('jriddingb@hp.com','EHS'),"
aertel2t@mozilla.org,Criminal Investigations,,"('aertel2t@mozilla.org','Criminal Investigations'),"
cgladding29@hubpages.com,Servers,,"('cgladding29@hubpages.com','Servers'),"
cgladding29@hubpages.com,Play Soccer,,"('cgladding29@hubpages.com','Play Soccer'),"
cboards4s@sourceforge.net,UCCE,,"('cboards4s@sourceforge.net','UCCE'),"
bverlander3d@delicious.com,VLSI CAD,,"('bverlander3d@delicious.com','VLSI CAD'),"
ahordle56@over-blog.com,UFS,,"('ahordle56@over-blog.com','UFS'),"
iweathersm@about.me,WSGI,,"('iweathersm@about.me','WSGI'),"
jlonding4c@china.com.cn,sFlow,,"('jlonding4c@china.com.cn','sFlow'),"
hwinsborrow4@hostgator.com,Osteopathy,,"('hwinsborrow4@hostgator.com','Osteopathy'),"
cnys3z@reference.com,VAS,,"('cnys3z@reference.com','VAS'),"
apawlaczyk4w@tinypic.com,TPE,,"('apawlaczyk4w@tinypic.com','TPE'),"
cboards4s@sourceforge.net,LyX,,"('cboards4s@sourceforge.net','LyX'),"
cnys3z@reference.com,Omegamon,,"('cnys3z@reference.com','Omegamon'),"
edussye@meetup.com,BMX,,"('edussye@meetup.com','BMX'),"
jlonding4c@china.com.cn,TNS Media Intelligence,,"('jlonding4c@china.com.cn','TNS Media Intelligence'),"
rlantaph1g@booking.com,QIP,,"('rlantaph1g@booking.com','QIP'),"
vshefton4n@pagesperso-orange.fr,Key Account Relationship Building,,"('vshefton4n@pagesperso-orange.fr','Key Account Relationship Building'),"
cwildes33@printfriendly.com,Game Design,,"('cwildes33@printfriendly.com','Game Design'),"
cboards4s@sourceforge.net,SSIS,,"('cboards4s@sourceforge.net','SSIS'),"
lsloane39@live.com,PTF,,"('lsloane39@live.com','PTF'),"
edussye@meetup.com,IT Service Management,,"('edussye@meetup.com','IT Service Management'),"
cwildes33@printfriendly.com,Sybase IQ,,"('cwildes33@printfriendly.com','Sybase IQ'),"
jparr3l@typepad.com,Xactly,,"('jparr3l@typepad.com','Xactly'),"
rlantaph1g@booking.com,Public Speaking,,"('rlantaph1g@booking.com','Public Speaking'),"
econre2b@google.es,Powers of Attorney,,"('econre2b@google.es','Powers of Attorney'),"
bkayes4l@zimbio.com,TIG Welding,,"('bkayes4l@zimbio.com','TIG Welding'),"
hwellbank2r@dion.ne.jp,SAP Implementation,,"('hwellbank2r@dion.ne.jp','SAP Implementation'),"
aertel2t@mozilla.org,Automotive,,"('aertel2t@mozilla.org','Automotive'),"
jlonding4c@china.com.cn,RDO,,"('jlonding4c@china.com.cn','RDO'),"
aphilott4v@imageshack.us,Fiber Optics,,"('aphilott4v@imageshack.us','Fiber Optics'),"
iweathersm@about.me,Crisis Intervention,,"('iweathersm@about.me','Crisis Intervention'),"
cgladding29@hubpages.com,Bartending,,"('cgladding29@hubpages.com','Bartending'),"
vshefton4n@pagesperso-orange.fr,PTFE,,"('vshefton4n@pagesperso-orange.fr','PTFE'),"
tlomis7@a8.net,PFT,,"('tlomis7@a8.net','PFT'),"
edussye@meetup.com,Digital Strategy,,"('edussye@meetup.com','Digital Strategy'),"
apicardo2@arstechnica.com,Quality Assurance,,"('apicardo2@arstechnica.com','Quality Assurance'),"
cbromilow4k@deliciousdays.com,OSHA 30-Hour,,"('cbromilow4k@deliciousdays.com','OSHA 30-Hour'),"
gveare4j@edublogs.org,MC2,,"('gveare4j@edublogs.org','MC2'),"
ddozdill9@deviantart.com,Data Center,,"('ddozdill9@deviantart.com','Data Center'),"
emoyer1t@latimes.com,Animal Husbandry,,"('emoyer1t@latimes.com','Animal Husbandry'),"
aphilott4v@imageshack.us,Optical Tweezers,,"('aphilott4v@imageshack.us','Optical Tweezers'),"
nghelardoni55@sfgate.com,Tier II Reporting,,"('nghelardoni55@sfgate.com','Tier II Reporting'),"
ovinson2p@ft.com,HW development,,"('ovinson2p@ft.com','HW development'),"
hwellbank2r@dion.ne.jp,Tour Management,,"('hwellbank2r@dion.ne.jp','Tour Management'),"
aconstable2q@wisc.edu,NFPA 101,,"('aconstable2q@wisc.edu','NFPA 101'),"
mthompstone3f@bandcamp.com,HSDPA,,"('mthompstone3f@bandcamp.com','HSDPA'),"
vshefton4n@pagesperso-orange.fr,Gynecologic Surgery,,"('vshefton4n@pagesperso-orange.fr','Gynecologic Surgery'),"
ddozdill9@deviantart.com,Bathrooms,,"('ddozdill9@deviantart.com','Bathrooms'),"
aphilott4v@imageshack.us,Uniform Combined State Law,,"('aphilott4v@imageshack.us','Uniform Combined State Law'),"
cohogertie4e@washingtonpost.com,MRAM,,"('cohogertie4e@washingtonpost.com','MRAM'),"
dcoulter2k@illinois.edu,Ecology,,"('dcoulter2k@illinois.edu','Ecology'),"
jlonding4c@china.com.cn,Awesomeness,,"('jlonding4c@china.com.cn','Awesomeness'),"
kbartoliniz@domainmarket.com,Pastoral Care,,"('kbartoliniz@domainmarket.com','Pastoral Care'),"
aconstable2q@wisc.edu,USDA,,"('aconstable2q@wisc.edu','USDA'),"
nrizzotto5b@ihg.com,Cash Flow Forecasting,,"('nrizzotto5b@ihg.com','Cash Flow Forecasting'),"
rbasshamc@wufoo.com,NRA,,"('rbasshamc@wufoo.com','NRA'),"
apicardo2@arstechnica.com,Glasses,,"('apicardo2@arstechnica.com','Glasses'),"
lsloane39@live.com,Web TV,,"('lsloane39@live.com','Web TV'),"
kreeveleyq@thetimes.co.uk,QuickBooks,,"('kreeveleyq@thetimes.co.uk','QuickBooks'),"
vshefton4n@pagesperso-orange.fr,Petroleum,,"('vshefton4n@pagesperso-orange.fr','Petroleum'),"
cohogertie4e@washingtonpost.com,System Administration,,"('cohogertie4e@washingtonpost.com','System Administration'),"
cnys3z@reference.com,MDB,,"('cnys3z@reference.com','MDB'),"
gbrokenbrow2o@t-online.de,PFEP,,"('gbrokenbrow2o@t-online.de','PFEP'),"
tlomis7@a8.net,Nuclear,,"('tlomis7@a8.net','Nuclear'),"
cohogertie4e@washingtonpost.com,Airline Ticketing,,"('cohogertie4e@washingtonpost.com','Airline Ticketing'),"
tjarayj@yahoo.com,Psychotherapy,,"('tjarayj@yahoo.com','Psychotherapy'),"
ddozdill9@deviantart.com,Python,,"('ddozdill9@deviantart.com','Python'),"
rbasshamc@wufoo.com,Key Opinion Leaders,,"('rbasshamc@wufoo.com','Key Opinion Leaders'),"
tjarayj@yahoo.com,DLL,,"('tjarayj@yahoo.com','DLL'),"
jparr3l@typepad.com,WTL,,"('jparr3l@typepad.com','WTL'),"
apawlaczyk4w@tinypic.com,ABR,,"('apawlaczyk4w@tinypic.com','ABR'),"
lsloane39@live.com,Product Knowledge,,"('lsloane39@live.com','Product Knowledge'),"
ddozdill9@deviantart.com,WS,,"('ddozdill9@deviantart.com','WS'),"
aconstable2q@wisc.edu,EOS,,"('aconstable2q@wisc.edu','EOS'),"
cvail3x@psu.edu,RMS,,"('cvail3x@psu.edu','RMS'),"
wpurkess58@marketwatch.com,Dbx,,"('wpurkess58@marketwatch.com','Dbx'),"
dcoulter2k@illinois.edu,PMA,,"('dcoulter2k@illinois.edu','PMA'),"
apicardo2@arstechnica.com,HTTPS,,"('apicardo2@arstechnica.com','HTTPS'),"
cwildes33@printfriendly.com,MDF,,"('cwildes33@printfriendly.com','MDF'),"
cbromilow4k@deliciousdays.com,Global Operations,,"('cbromilow4k@deliciousdays.com','Global Operations'),"
fvon0@baidu.com,Basel III,,"('fvon0@baidu.com','Basel III'),"
jriddingb@hp.com,Kitchen Remodeling,,"('jriddingb@hp.com','Kitchen Remodeling'),"
mthompstone3f@bandcamp.com,NSIS,,"('mthompstone3f@bandcamp.com','NSIS'),"
cwildes33@printfriendly.com,Pharmaceutics,,"('cwildes33@printfriendly.com','Pharmaceutics'),"
cgladding29@hubpages.com,SMED,,"('cgladding29@hubpages.com','SMED'),"
tjarayj@yahoo.com,Benefits Negotiation,,"('tjarayj@yahoo.com','Benefits Negotiation'),"
cwildes33@printfriendly.com,Job Search Strategies,,"('cwildes33@printfriendly.com','Job Search Strategies'),"
gbrokenbrow2o@t-online.de,Disability Insurance,,"('gbrokenbrow2o@t-online.de','Disability Insurance'),"
cnys3z@reference.com,Ambulance,,"('cnys3z@reference.com','Ambulance'),"
awhitcher1z@geocities.jp,Flight Training,,"('awhitcher1z@geocities.jp','Flight Training'),"
cbromilow4k@deliciousdays.com,iPad Development,,"('cbromilow4k@deliciousdays.com','iPad Development'),"
bbehling3n@youtu.be,CBD,,"('bbehling3n@youtu.be','CBD'),"
mthompstone3f@bandcamp.com,PKMS,,"('mthompstone3f@bandcamp.com','PKMS'),"
edussye@meetup.com,21 CFR Part 11,,"('edussye@meetup.com','21 CFR Part 11'),"
ovinson2p@ft.com,Credit Analysis,,"('ovinson2p@ft.com','Credit Analysis'),"
nghelardoni55@sfgate.com,VDM,,"('nghelardoni55@sfgate.com','VDM'),"
rlantaph1g@booking.com,SRTP,,"('rlantaph1g@booking.com','SRTP'),"
lsloane39@live.com,Rollout,,"('lsloane39@live.com','Rollout'),"
ovinson2p@ft.com,Yacc,,"('ovinson2p@ft.com','Yacc'),"
jparr3l@typepad.com,SOA,,"('jparr3l@typepad.com','SOA'),"
apicardo2@arstechnica.com,IBM Tivoli,,"('apicardo2@arstechnica.com','IBM Tivoli'),"
mivanuschka49@epa.gov,Dunn &amp; Bradstreet,,"('mivanuschka49@epa.gov','Dunn &amp; Bradstreet'),"
cnys3z@reference.com,Whiplash,,"('cnys3z@reference.com','Whiplash'),"
aconstable2q@wisc.edu,HBV,,"('aconstable2q@wisc.edu','HBV'),"
fvon0@baidu.com,IBC,,"('fvon0@baidu.com','IBC'),"
nghelardoni55@sfgate.com,Critical Care,,"('nghelardoni55@sfgate.com','Critical Care'),"
jlonding4c@china.com.cn,Usability,,"('jlonding4c@china.com.cn','Usability'),"
aphilott4v@imageshack.us,UIKit,,"('aphilott4v@imageshack.us','UIKit'),"
gveare4j@edublogs.org,Software Development,,"('gveare4j@edublogs.org','Software Development'),"
apicardo2@arstechnica.com,HTK,,"('apicardo2@arstechnica.com','HTK'),"
hwellbank2r@dion.ne.jp,Hygiene,,"('hwellbank2r@dion.ne.jp','Hygiene'),"
gbrokenbrow2o@t-online.de,DX200,,"('gbrokenbrow2o@t-online.de','DX200'),"
tjarayj@yahoo.com,JRockit,,"('tjarayj@yahoo.com','JRockit'),"
iweathersm@about.me,Sungard GMI,,"('iweathersm@about.me','Sungard GMI'),"
lsloane39@live.com,Illustration,,"('lsloane39@live.com','Illustration'),"
rbasshamc@wufoo.com,NPDES,,"('rbasshamc@wufoo.com','NPDES'),"
