email,no_hp,tanggal_lahir,,
kbartoliniz@domainmarket.com,362-840-6612,10/29/1971,,"('kbartoliniz@domainmarket.com','362-840-6612','29/10/1971'),"
bdandy3s@arstechnica.com,276-359-5571,9/5/1991,,"('bdandy3s@arstechnica.com','276-359-5571','05/09/1991'),"
cnys3z@reference.com,716-828-5624,4/29/1950,,"('cnys3z@reference.com','716-828-5624','29/04/1950'),"
mivanuschka49@epa.gov,280-658-7185,8/12/1958,,"('mivanuschka49@epa.gov','280-658-7185','12/08/1958'),"
skohrsen34@topsy.com,223-322-4182,10/9/1999,,"('skohrsen34@topsy.com','223-322-4182','09/10/1999'),"
kreeveleyq@thetimes.co.uk,169-412-1279,6/22/1984,,"('kreeveleyq@thetimes.co.uk','169-412-1279','22/06/1984'),"
cohogertie4e@washingtonpost.com,567-370-1774,10/4/1993,,"('cohogertie4e@washingtonpost.com','567-370-1774','04/10/1993'),"
tlomis7@a8.net,457-578-7499,6/3/2012,,"('tlomis7@a8.net','457-578-7499','03/06/2012'),"
econre2b@google.es,555-608-0057,8/13/1993,,"('econre2b@google.es','555-608-0057','13/08/1993'),"
dcoulter2k@illinois.edu,892-355-2527,4/14/2008,,"('dcoulter2k@illinois.edu','892-355-2527','14/04/2008'),"
bverlander3d@delicious.com,925-415-6854,4/20/1960,,"('bverlander3d@delicious.com','925-415-6854','20/04/1960'),"
mmayhead5j@networkadvertising.org,602-180-8665,7/30/1958,,"('mmayhead5j@networkadvertising.org','602-180-8665','30/07/1958'),"
nrizzotto5b@ihg.com,427-997-7312,4/5/1982,,"('nrizzotto5b@ihg.com','427-997-7312','05/04/1982'),"
ahordle56@over-blog.com,299-118-5372,6/10/1955,,"('ahordle56@over-blog.com','299-118-5372','10/06/1955'),"
aertel2t@mozilla.org,412-677-8422,10/27/1958,,"('aertel2t@mozilla.org','412-677-8422','27/10/1958'),"
gveare4j@edublogs.org,319-166-8348,3/20/1998,,"('gveare4j@edublogs.org','319-166-8348','20/03/1998'),"
cvail3x@psu.edu,897-691-0948,5/7/1987,,"('cvail3x@psu.edu','897-691-0948','07/05/1987'),"
cboards4s@sourceforge.net,335-845-6306,6/20/1993,,"('cboards4s@sourceforge.net','335-845-6306','20/06/1993'),"
cgladding29@hubpages.com,909-186-2840,3/3/1963,,"('cgladding29@hubpages.com','909-186-2840','03/03/1963'),"
aphilott4v@imageshack.us,986-320-9441,9/16/1966,,"('aphilott4v@imageshack.us','986-320-9441','16/09/1966'),"
rbasshamc@wufoo.com,806-259-6054,10/31/1954,,"('rbasshamc@wufoo.com','806-259-6054','31/10/1954'),"
edussye@meetup.com,417-750-8287,2/19/1981,,"('edussye@meetup.com','417-750-8287','19/02/1981'),"
apicardo2@arstechnica.com,167-637-8454,6/27/1986,,"('apicardo2@arstechnica.com','167-637-8454','27/06/1986'),"
rlantaph1g@booking.com,712-278-3781,5/3/1979,,"('rlantaph1g@booking.com','712-278-3781','03/05/1979'),"
iweathersm@about.me,716-336-2696,9/11/1968,,"('iweathersm@about.me','716-336-2696','11/09/1968'),"
apawlaczyk4w@tinypic.com,801-979-2870,2/18/2006,,"('apawlaczyk4w@tinypic.com','801-979-2870','18/02/2006'),"
gbrokenbrow2o@t-online.de,531-146-2826,5/3/2005,,"('gbrokenbrow2o@t-online.de','531-146-2826','03/05/2005'),"
cbromilow4k@deliciousdays.com,140-317-7696,8/10/1971,,"('cbromilow4k@deliciousdays.com','140-317-7696','10/08/1971'),"
ovinson2p@ft.com,371-186-7142,2/20/1994,,"('ovinson2p@ft.com','371-186-7142','20/02/1994'),"
jlonding4c@china.com.cn,467-312-2374,6/14/1996,,"('jlonding4c@china.com.cn','467-312-2374','14/06/1996'),"
cwildes33@printfriendly.com,171-790-0679,7/14/1977,,"('cwildes33@printfriendly.com','171-790-0679','14/07/1977'),"
nghelardoni55@sfgate.com,598-725-8723,2/27/1988,,"('nghelardoni55@sfgate.com','598-725-8723','27/02/1988'),"
aconstable2q@wisc.edu,945-451-1303,8/19/2001,,"('aconstable2q@wisc.edu','945-451-1303','19/08/2001'),"
ssivill1f@eventbrite.com,722-501-5122,10/22/2005,,"('ssivill1f@eventbrite.com','722-501-5122','22/10/2005'),"
emoyer1t@latimes.com,439-268-1538,5/25/1951,,"('emoyer1t@latimes.com','439-268-1538','25/05/1951'),"
awhitcher1z@geocities.jp,306-161-6457,8/5/2002,,"('awhitcher1z@geocities.jp','306-161-6457','05/08/2002'),"
vshefton4n@pagesperso-orange.fr,947-986-3419,11/23/2002,,"('vshefton4n@pagesperso-orange.fr','947-986-3419','23/11/2002'),"
mthompstone3f@bandcamp.com,270-367-1691,5/15/1952,,"('mthompstone3f@bandcamp.com','270-367-1691','15/05/1952'),"
lsloane39@live.com,532-671-5468,7/12/1987,,"('lsloane39@live.com','532-671-5468','12/07/1987'),"
ddozdill9@deviantart.com,824-382-2426,10/5/2000,,"('ddozdill9@deviantart.com','824-382-2426','05/10/2000'),"
wpurkess58@marketwatch.com,386-979-3342,11/28/1970,,"('wpurkess58@marketwatch.com','386-979-3342','28/11/1970'),"
bbehling3n@youtu.be,623-882-3802,3/23/1985,,"('bbehling3n@youtu.be','623-882-3802','23/03/1985'),"
tjarayj@yahoo.com,784-641-4532,4/21/1971,,"('tjarayj@yahoo.com','784-641-4532','21/04/1971'),"
bkayes4l@zimbio.com,495-930-9181,12/22/1955,,"('bkayes4l@zimbio.com','495-930-9181','22/12/1955'),"
jparr3l@typepad.com,703-336-5147,1/24/1990,,"('jparr3l@typepad.com','703-336-5147','24/01/1990'),"
fvon0@baidu.com,135-978-0170,4/25/1964,,"('fvon0@baidu.com','135-978-0170','25/04/1964'),"
galdren45@gravatar.com,428-626-7772,11/26/1960,,"('galdren45@gravatar.com','428-626-7772','26/11/1960'),"
hwinsborrow4@hostgator.com,735-661-0900,10/15/2005,,"('hwinsborrow4@hostgator.com','735-661-0900','15/10/2005'),"
jriddingb@hp.com,865-758-3924,5/14/2001,,"('jriddingb@hp.com','865-758-3924','14/05/2001'),"
hwellbank2r@dion.ne.jp,248-977-5743,3/8/2000,,"('hwellbank2r@dion.ne.jp','248-977-5743','08/03/2000'),"
